127.0.0.1 - - [26/Jan/2020:11:30:52 +0530] "GET / HTTP/1.1" 404 709
0:0:0:0:0:0:0:1 - - [26/Jan/2020:11:30:59 +0530] "GET /SpringMVCDemo/ HTTP/1.1" 404 682
0:0:0:0:0:0:0:1 - - [26/Jan/2020:11:30:59 +0530] "GET /favicon.ico HTTP/1.1" 404 720
0:0:0:0:0:0:0:1 - - [26/Jan/2020:11:31:12 +0530] "GET /SpringMVCDemo/authors2 HTTP/1.1" 200 5260
0:0:0:0:0:0:0:1 - - [26/Jan/2020:11:34:14 +0530] "GET /SpringMVCDemo/authors2 HTTP/1.1" 200 5002
0:0:0:0:0:0:0:1 - - [26/Jan/2020:11:34:16 +0530] "GET /SpringMVCDemo/authors2?aid=1 HTTP/1.1" 200 5002
0:0:0:0:0:0:0:1 - - [26/Jan/2020:11:34:21 +0530] "GET /SpringMVCDemo/authors2?aid=6 HTTP/1.1" 200 5002
0:0:0:0:0:0:0:1 - - [26/Jan/2020:11:34:27 +0530] "GET /SpringMVCDemo/authors2?aid=9 HTTP/1.1" 200 5002
0:0:0:0:0:0:0:1 - - [26/Jan/2020:11:35:12 +0530] "GET /SpringMVCDemo/authors2?aid=9 HTTP/1.1" 200 5002
0:0:0:0:0:0:0:1 - - [26/Jan/2020:11:40:32 +0530] "GET /SpringMVCDemo/authors2?aid=9 HTTP/1.1" 200 5002
0:0:0:0:0:0:0:1 - - [26/Jan/2020:11:40:33 +0530] "GET /SpringMVCDemo/authors2?aid=9 HTTP/1.1" 200 5002
0:0:0:0:0:0:0:1 - - [26/Jan/2020:11:40:35 +0530] "GET /SpringMVCDemo/authors2?aid=9 HTTP/1.1" 200 5002
0:0:0:0:0:0:0:1 - - [26/Jan/2020:11:40:35 +0530] "GET /SpringMVCDemo/authors2?aid=9 HTTP/1.1" 200 5002
0:0:0:0:0:0:0:1 - - [26/Jan/2020:11:40:35 +0530] "GET /SpringMVCDemo/authors2?aid=9 HTTP/1.1" 200 5002
0:0:0:0:0:0:0:1 - - [26/Jan/2020:11:40:36 +0530] "GET /SpringMVCDemo/authors2?aid=9 HTTP/1.1" 200 5002
0:0:0:0:0:0:0:1 - - [26/Jan/2020:11:40:36 +0530] "GET /SpringMVCDemo/authors2?aid=9 HTTP/1.1" 200 5002
0:0:0:0:0:0:0:1 - - [26/Jan/2020:11:40:37 +0530] "GET /SpringMVCDemo/authors2?aid=1 HTTP/1.1" 200 5002
0:0:0:0:0:0:0:1 - - [26/Jan/2020:11:40:40 +0530] "GET /SpringMVCDemo/authors2?aid=1 HTTP/1.1" 200 5002
0:0:0:0:0:0:0:1 - - [26/Jan/2020:11:40:41 +0530] "GET /SpringMVCDemo/authors2?aid=1 HTTP/1.1" 200 5002
0:0:0:0:0:0:0:1 - - [26/Jan/2020:11:40:41 +0530] "GET /SpringMVCDemo/authors2?aid=1 HTTP/1.1" 200 5002
0:0:0:0:0:0:0:1 - - [26/Jan/2020:11:40:41 +0530] "GET /SpringMVCDemo/authors2?aid=1 HTTP/1.1" 200 5002
0:0:0:0:0:0:0:1 - - [26/Jan/2020:11:40:41 +0530] "GET /SpringMVCDemo/authors2?aid=1 HTTP/1.1" 200 5002
0:0:0:0:0:0:0:1 - - [26/Jan/2020:11:40:48 +0530] "GET /SpringMVCDemo/authors2 HTTP/1.1" 200 5002
0:0:0:0:0:0:0:1 - - [26/Jan/2020:11:40:51 +0530] "GET /SpringMVCDemo/authors2 HTTP/1.1" 200 5002
0:0:0:0:0:0:0:1 - - [26/Jan/2020:11:40:54 +0530] "GET /SpringMVCDemo/authors2?aid=1 HTTP/1.1" 200 5002
0:0:0:0:0:0:0:1 - - [26/Jan/2020:11:41:24 +0530] "GET /SpringMVCDemo/authors2?aid=1 HTTP/1.1" 200 5014
0:0:0:0:0:0:0:1 - - [26/Jan/2020:11:41:28 +0530] "GET /SpringMVCDemo/updateForm?aid=1 HTTP/1.1" 404 682
0:0:0:0:0:0:0:1 - - [26/Jan/2020:11:45:37 +0530] "GET /SpringMVCDemo/authirs2 HTTP/1.1" 404 682
0:0:0:0:0:0:0:1 - - [26/Jan/2020:11:45:43 +0530] "GET /SpringMVCDemo/authors2 HTTP/1.1" 200 4990
0:0:0:0:0:0:0:1 - - [26/Jan/2020:11:45:44 +0530] "GET /SpringMVCDemo/authors2 HTTP/1.1" 200 4990
0:0:0:0:0:0:0:1 - - [26/Jan/2020:11:45:46 +0530] "GET /SpringMVCDemo/update?aid=1 HTTP/1.1" 404 682
0:0:0:0:0:0:0:1 - - [26/Jan/2020:11:51:38 +0530] "GET /SpringMVCDemo/update?aid=1 HTTP/1.1" 404 682
0:0:0:0:0:0:0:1 - - [26/Jan/2020:11:51:42 +0530] "GET /SpringMVCDemo/authors2 HTTP/1.1" 200 4990
0:0:0:0:0:0:0:1 - - [26/Jan/2020:11:51:45 +0530] "GET /SpringMVCDemo/update?aid=1 HTTP/1.1" 404 682
0:0:0:0:0:0:0:1 - - [26/Jan/2020:11:52:13 +0530] "GET /SpringMVCDemo/update?aid=1 HTTP/1.1" 404 682
0:0:0:0:0:0:0:1 - - [26/Jan/2020:11:52:14 +0530] "GET /SpringMVCDemo/update?aid=1 HTTP/1.1" 404 682
0:0:0:0:0:0:0:1 - - [26/Jan/2020:11:52:26 +0530] "GET /SpringMVCDemo/authors2 HTTP/1.1" 200 4990
0:0:0:0:0:0:0:1 - - [26/Jan/2020:11:52:28 +0530] "GET /SpringMVCDemo/update?aid=1 HTTP/1.1" 404 682
0:0:0:0:0:0:0:1 - - [26/Jan/2020:11:57:23 +0530] "GET /SpringMVCDemo/authors2 HTTP/1.1" 200 5014
0:0:0:0:0:0:0:1 - - [26/Jan/2020:11:57:25 +0530] "GET /SpringMVCDemo/updateForm?aid=1 HTTP/1.1" 404 682
0:0:0:0:0:0:0:1 - - [26/Jan/2020:12:00:45 +0530] "GET /SpringMVCDemo/authors2 HTTP/1.1" 200 5014
0:0:0:0:0:0:0:1 - - [26/Jan/2020:12:00:46 +0530] "GET /SpringMVCDemo/updateForm?aid=1 HTTP/1.1" 404 682
0:0:0:0:0:0:0:1 - - [26/Jan/2020:12:00:53 +0530] "GET /SpringMVCDemo/updateForm?aid=10 HTTP/1.1" 404 682
0:0:0:0:0:0:0:1 - - [26/Jan/2020:12:01:13 +0530] "GET /SpringMVCDemo/authors2 HTTP/1.1" 200 4975
0:0:0:0:0:0:0:1 - - [26/Jan/2020:12:01:14 +0530] "GET /SpringMVCDemo/updateForm HTTP/1.1" 404 682
0:0:0:0:0:0:0:1 - - [26/Jan/2020:12:01:45 +0530] "GET /SpringMVCDemo/authors2 HTTP/1.1" 200 5029
0:0:0:0:0:0:0:1 - - [26/Jan/2020:12:01:47 +0530] "GET /SpringMVCDemo/authors2/updateForm HTTP/1.1" 200 1823
0:0:0:0:0:0:0:1 - - [26/Jan/2020:12:02:40 +0530] "GET /SpringMVCDemo/authors2/updateForm HTTP/1.1" 200 1829
0:0:0:0:0:0:0:1 - - [26/Jan/2020:12:03:08 +0530] "GET /SpringMVCDemo/authors2/updateForm HTTP/1.1" 200 1829
0:0:0:0:0:0:0:1 - - [26/Jan/2020:12:03:12 +0530] "GET /SpringMVCDemo/authors2 HTTP/1.1" 200 5068
0:0:0:0:0:0:0:1 - - [26/Jan/2020:12:03:13 +0530] "GET /SpringMVCDemo/authors2/updateForm?aid=1 HTTP/1.1" 200 1829
0:0:0:0:0:0:0:1 - - [26/Jan/2020:12:05:52 +0530] "GET /SpringMVCDemo/authors2/updateForm?aid=1 HTTP/1.1" 200 2075
0:0:0:0:0:0:0:1 - - [26/Jan/2020:12:06:01 +0530] "GET /SpringMVCDemo/authors2/updateForm?aid=1 HTTP/1.1" 200 2075
0:0:0:0:0:0:0:1 - - [26/Jan/2020:12:07:09 +0530] "POST /SpringMVCDemo/authors2/authors2/update HTTP/1.1" 404 682
0:0:0:0:0:0:0:1 - - [26/Jan/2020:12:07:29 +0530] "POST /SpringMVCDemo/authors2/authors2/update HTTP/1.1" 404 682
0:0:0:0:0:0:0:1 - - [26/Jan/2020:12:07:35 +0530] "GET /SpringMVCDemo/authors2/updateForm?aid=1 HTTP/1.1" 200 2066
0:0:0:0:0:0:0:1 - - [26/Jan/2020:12:07:37 +0530] "GET /SpringMVCDemo/authors2/updateForm?aid=1 HTTP/1.1" 200 2066
0:0:0:0:0:0:0:1 - - [26/Jan/2020:12:07:37 +0530] "GET /SpringMVCDemo/authors2/updateForm?aid=1 HTTP/1.1" 200 2066
0:0:0:0:0:0:0:1 - - [26/Jan/2020:12:07:54 +0530] "POST /SpringMVCDemo/authors2/update HTTP/1.1" 302 -
0:0:0:0:0:0:0:1 - - [26/Jan/2020:12:07:54 +0530] "GET /SpringMVCDemo/authors/home HTTP/1.1" 404 682
0:0:0:0:0:0:0:1 - - [26/Jan/2020:12:09:05 +0530] "GET /SpringMVCDemo/authors2/updateForm?aid=1 HTTP/1.1" 200 2066
0:0:0:0:0:0:0:1 - - [26/Jan/2020:12:09:18 +0530] "GET /SpringMVCDemo/authors2 HTTP/1.1" 200 5062
0:0:0:0:0:0:0:1 - - [26/Jan/2020:12:09:32 +0530] "GET /SpringMVCDemo/authors2/updateForm?aid=9 HTTP/1.1" 200 2066
0:0:0:0:0:0:0:1 - - [26/Jan/2020:12:09:41 +0530] "POST /SpringMVCDemo/authors2/update HTTP/1.1" 302 -
0:0:0:0:0:0:0:1 - - [26/Jan/2020:12:09:41 +0530] "GET /SpringMVCDemo/authors2 HTTP/1.1" 200 5062
0:0:0:0:0:0:0:1 - - [26/Jan/2020:12:10:10 +0530] "GET /SpringMVCDemo/authors2/updateForm?aid=1 HTTP/1.1" 200 2066
0:0:0:0:0:0:0:1 - - [26/Jan/2020:12:11:39 +0530] "GET /SpringMVCDemo/authors2/updateForm?aid=1 HTTP/1.1" 200 2077
0:0:0:0:0:0:0:1 - - [26/Jan/2020:12:19:25 +0530] "GET /SpringMVCDemo/authors2 HTTP/1.1" 200 5062
0:0:0:0:0:0:0:1 - - [26/Jan/2020:12:19:26 +0530] "GET /SpringMVCDemo/authors2/updateForm?aid=1 HTTP/1.1" 200 2077
0:0:0:0:0:0:0:1 - - [26/Jan/2020:12:26:14 +0530] "GET /SpringMVCDemo/authors2 HTTP/1.1" 200 5062
0:0:0:0:0:0:0:1 - - [26/Jan/2020:12:26:15 +0530] "GET /SpringMVCDemo/authors2 HTTP/1.1" 200 5062
0:0:0:0:0:0:0:1 - - [26/Jan/2020:12:26:16 +0530] "GET /SpringMVCDemo/authors2 HTTP/1.1" 200 5062
0:0:0:0:0:0:0:1 - - [26/Jan/2020:12:26:16 +0530] "GET /SpringMVCDemo/authors2 HTTP/1.1" 200 5062
0:0:0:0:0:0:0:1 - - [26/Jan/2020:12:26:16 +0530] "GET /SpringMVCDemo/authors2 HTTP/1.1" 200 5062
0:0:0:0:0:0:0:1 - - [26/Jan/2020:12:26:17 +0530] "GET /SpringMVCDemo/authors2 HTTP/1.1" 200 5062
0:0:0:0:0:0:0:1 - - [26/Jan/2020:12:26:19 +0530] "GET /SpringMVCDemo/authors2/updateForm?aid=1 HTTP/1.1" 500 6738
0:0:0:0:0:0:0:1 - - [26/Jan/2020:12:28:57 +0530] "GET /SpringMVCDemo/authors2 HTTP/1.1" 200 5062
0:0:0:0:0:0:0:1 - - [26/Jan/2020:12:28:58 +0530] "GET /SpringMVCDemo/authors2 HTTP/1.1" 200 5062
0:0:0:0:0:0:0:1 - - [26/Jan/2020:12:28:58 +0530] "GET /SpringMVCDemo/authors2 HTTP/1.1" 200 5062
0:0:0:0:0:0:0:1 - - [26/Jan/2020:12:28:58 +0530] "GET /SpringMVCDemo/authors2 HTTP/1.1" 200 5062
0:0:0:0:0:0:0:1 - - [26/Jan/2020:12:28:59 +0530] "GET /SpringMVCDemo/authors2 HTTP/1.1" 200 5062
0:0:0:0:0:0:0:1 - - [26/Jan/2020:12:28:59 +0530] "GET /SpringMVCDemo/authors2 HTTP/1.1" 200 5062
0:0:0:0:0:0:0:1 - - [26/Jan/2020:12:29:00 +0530] "GET /SpringMVCDemo/authors2/updateForm?aid=1 HTTP/1.1" 200 2171
0:0:0:0:0:0:0:1 - - [26/Jan/2020:12:29:07 +0530] "GET /SpringMVCDemo/authors2/updateForm?aid=6 HTTP/1.1" 200 2179
0:0:0:0:0:0:0:1 - - [26/Jan/2020:12:29:15 +0530] "GET /SpringMVCDemo/authors2/updateForm?aid=10 HTTP/1.1" 200 2173
0:0:0:0:0:0:0:1 - - [26/Jan/2020:12:29:25 +0530] "POST /SpringMVCDemo/authors2/update HTTP/1.1" 302 -
0:0:0:0:0:0:0:1 - - [26/Jan/2020:12:29:25 +0530] "GET /SpringMVCDemo/authors2 HTTP/1.1" 200 5063
127.0.0.1 - - [26/Jan/2020:19:34:51 +0530] "GET / HTTP/1.1" 404 709
0:0:0:0:0:0:0:1 - - [26/Jan/2020:19:34:58 +0530] "GET /SpringMVCDemo/ HTTP/1.1" 404 682
0:0:0:0:0:0:0:1 - - [26/Jan/2020:19:34:59 +0530] "GET /favicon.ico HTTP/1.1" 404 720
0:0:0:0:0:0:0:1 - - [26/Jan/2020:19:35:18 +0530] "GET /SpringMVCDemo/authors2 HTTP/1.1" 200 5327
0:0:0:0:0:0:0:1 - - [26/Jan/2020:19:35:22 +0530] "GET /SpringMVCDemo/authors2/updateForm;jsessionid=A57ADB616E8DA58662151C3697AA7EE1?aid=1 HTTP/1.1" 200 2171
0:0:0:0:0:0:0:1 - - [26/Jan/2020:19:35:31 +0530] "GET /SpringMVCDemo/authors2/updateForm;jsessionid=A57ADB616E8DA58662151C3697AA7EE1?aid=6 HTTP/1.1" 200 2179
0:0:0:0:0:0:0:1 - - [26/Jan/2020:19:39:11 +0530] "GET /SpringMVCDemo/authors2/updateForm;jsessionid=A57ADB616E8DA58662151C3697AA7EE1?aid=1 HTTP/1.1" 200 2171
0:0:0:0:0:0:0:1 - - [26/Jan/2020:19:39:40 +0530] "GET /SpringMVCDemo/authors2 HTTP/1.1" 200 5063
0:0:0:0:0:0:0:1 - - [26/Jan/2020:19:39:52 +0530] "GET /SpringMVCDemo/authors2 HTTP/1.1" 200 5063
0:0:0:0:0:0:0:1 - - [26/Jan/2020:19:39:52 +0530] "GET /SpringMVCDemo/authors2 HTTP/1.1" 200 5063
0:0:0:0:0:0:0:1 - - [26/Jan/2020:19:39:55 +0530] "GET /SpringMVCDemo/authors2/updateForm?aid=1 HTTP/1.1" 200 5018
0:0:0:0:0:0:0:1 - - [26/Jan/2020:19:40:03 +0530] "GET /SpringMVCDemo/authors2/updateForm?aid=12 HTTP/1.1" 200 5021
0:0:0:0:0:0:0:1 - - [26/Jan/2020:19:40:10 +0530] "POST /SpringMVCDemo/authors2/update HTTP/1.1" 302 -
0:0:0:0:0:0:0:1 - - [26/Jan/2020:19:40:10 +0530] "GET /SpringMVCDemo/authors2 HTTP/1.1" 200 5064
0:0:0:0:0:0:0:1 - - [26/Jan/2020:19:41:39 +0530] "GET /SpringMVCDemo/authors2 HTTP/1.1" 200 5324
0:0:0:0:0:0:0:1 - - [26/Jan/2020:19:42:27 +0530] "GET /SpringMVCDemo/authors2 HTTP/1.1" 200 5340
0:0:0:0:0:0:0:1 - - [26/Jan/2020:19:42:37 +0530] "GET /SpringMVCDemo/authors2/updateForm?aid=6 HTTP/1.1" 200 5303
0:0:0:0:0:0:0:1 - - [26/Jan/2020:19:43:22 +0530] "GET /SpringMVCDemo/authors2/updateForm?aid=6 HTTP/1.1" 200 5303
0:0:0:0:0:0:0:1 - - [26/Jan/2020:19:45:50 +0530] "GET /SpringMVCDemo/authors2/updateForm?aid=6 HTTP/1.1" 200 5309
0:0:0:0:0:0:0:1 - - [26/Jan/2020:19:45:53 +0530] "GET /SpringMVCDemo/authors2/updateForm?aid=6 HTTP/1.1" 200 5309
0:0:0:0:0:0:0:1 - - [26/Jan/2020:19:45:53 +0530] "GET /SpringMVCDemo/authors2/updateForm?aid=6 HTTP/1.1" 200 5309
0:0:0:0:0:0:0:1 - - [26/Jan/2020:19:45:53 +0530] "GET /SpringMVCDemo/authors2/updateForm?aid=6 HTTP/1.1" 200 5309
0:0:0:0:0:0:0:1 - - [26/Jan/2020:19:45:53 +0530] "GET /SpringMVCDemo/authors2/updateForm?aid=6 HTTP/1.1" 200 5309
0:0:0:0:0:0:0:1 - - [26/Jan/2020:19:45:54 +0530] "GET /SpringMVCDemo/authors2/updateForm?aid=6 HTTP/1.1" 200 5309
0:0:0:0:0:0:0:1 - - [26/Jan/2020:19:45:54 +0530] "GET /SpringMVCDemo/authors2/updateForm?aid=6 HTTP/1.1" 200 5309
0:0:0:0:0:0:0:1 - - [26/Jan/2020:19:45:54 +0530] "GET /SpringMVCDemo/authors2/updateForm?aid=6 HTTP/1.1" 200 5309
0:0:0:0:0:0:0:1 - - [26/Jan/2020:19:45:56 +0530] "GET /SpringMVCDemo/authors2 HTTP/1.1" 200 5340
0:0:0:0:0:0:0:1 - - [26/Jan/2020:19:45:57 +0530] "GET /SpringMVCDemo/authors2 HTTP/1.1" 200 5340
0:0:0:0:0:0:0:1 - - [26/Jan/2020:19:45:57 +0530] "GET /SpringMVCDemo/authors2 HTTP/1.1" 200 5340
0:0:0:0:0:0:0:1 - - [26/Jan/2020:19:45:58 +0530] "GET /SpringMVCDemo/authors2 HTTP/1.1" 200 5340
0:0:0:0:0:0:0:1 - - [26/Jan/2020:19:45:58 +0530] "GET /SpringMVCDemo/authors2 HTTP/1.1" 200 5340
0:0:0:0:0:0:0:1 - - [26/Jan/2020:19:45:58 +0530] "GET /SpringMVCDemo/authors2 HTTP/1.1" 200 5340
0:0:0:0:0:0:0:1 - - [26/Jan/2020:19:45:59 +0530] "GET /SpringMVCDemo/authors2/updateForm?aid=6 HTTP/1.1" 200 5309
0:0:0:0:0:0:0:1 - - [26/Jan/2020:19:46:10 +0530] "GET /SpringMVCDemo/authors2/updateForm?aid=9 HTTP/1.1" 200 5313
0:0:0:0:0:0:0:1 - - [26/Jan/2020:19:46:14 +0530] "GET /SpringMVCDemo/authors2/updateForm?aid=12 HTTP/1.1" 200 5284
0:0:0:0:0:0:0:1 - - [26/Jan/2020:19:46:17 +0530] "GET /SpringMVCDemo/authors2/updateForm?aid=1 HTTP/1.1" 200 5301
0:0:0:0:0:0:0:1 - - [26/Jan/2020:19:46:24 +0530] "POST /SpringMVCDemo/authors2/update HTTP/1.1" 302 -
0:0:0:0:0:0:0:1 - - [26/Jan/2020:19:46:24 +0530] "GET /SpringMVCDemo/authors2 HTTP/1.1" 200 5342
0:0:0:0:0:0:0:1 - - [26/Jan/2020:19:46:57 +0530] "POST /SpringMVCDemo/authors2 HTTP/1.1" 200 2265
0:0:0:0:0:0:0:1 - - [26/Jan/2020:19:47:05 +0530] "GET /SpringMVCDemo/authors2 HTTP/1.1" 200 5342
0:0:0:0:0:0:0:1 - - [26/Jan/2020:19:47:08 +0530] "GET /SpringMVCDemo/authors2/updateForm?aid=12 HTTP/1.1" 200 5286
0:0:0:0:0:0:0:1 - - [26/Jan/2020:19:47:10 +0530] "GET /SpringMVCDemo/authors2/updateForm?aid=11 HTTP/1.1" 200 5320
0:0:0:0:0:0:0:1 - - [26/Jan/2020:19:48:17 +0530] "GET /SpringMVCDemo/authors2/updateForm?aid=12 HTTP/1.1" 200 5286
0:0:0:0:0:0:0:1 - - [26/Jan/2020:19:48:19 +0530] "GET /SpringMVCDemo/authors2 HTTP/1.1" 200 5342
0:0:0:0:0:0:0:1 - - [26/Jan/2020:19:48:21 +0530] "GET /SpringMVCDemo/authors2/updateForm?aid=1 HTTP/1.1" 200 5299
0:0:0:0:0:0:0:1 - - [26/Jan/2020:19:48:34 +0530] "GET /SpringMVCDemo/authors2/updateForm?aid=11 HTTP/1.1" 200 5314
0:0:0:0:0:0:0:1 - - [26/Jan/2020:19:52:30 +0530] "GET /SpringMVCDemo/authors2/updateForm?aid=11 HTTP/1.1" 200 5320
0:0:0:0:0:0:0:1 - - [26/Jan/2020:19:52:34 +0530] "GET /SpringMVCDemo/authors2/updateForm?aid=1 HTTP/1.1" 200 5305
0:0:0:0:0:0:0:1 - - [26/Jan/2020:19:52:36 +0530] "GET /SpringMVCDemo/authors2/updateForm?aid=1 HTTP/1.1" 200 5305
0:0:0:0:0:0:0:1 - - [26/Jan/2020:19:52:36 +0530] "GET /SpringMVCDemo/authors2/updateForm?aid=1 HTTP/1.1" 200 5305
0:0:0:0:0:0:0:1 - - [26/Jan/2020:19:52:36 +0530] "GET /SpringMVCDemo/authors2/updateForm?aid=1 HTTP/1.1" 200 5305
0:0:0:0:0:0:0:1 - - [26/Jan/2020:19:52:37 +0530] "GET /SpringMVCDemo/authors2/updateForm?aid=1 HTTP/1.1" 200 5305
0:0:0:0:0:0:0:1 - - [26/Jan/2020:19:52:37 +0530] "GET /SpringMVCDemo/authors2/updateForm?aid=1 HTTP/1.1" 200 5305
0:0:0:0:0:0:0:1 - - [26/Jan/2020:19:52:37 +0530] "GET /SpringMVCDemo/authors2/updateForm?aid=1 HTTP/1.1" 200 5305
0:0:0:0:0:0:0:1 - - [26/Jan/2020:19:52:41 +0530] "GET /SpringMVCDemo/authors2/updateForm?aid=11 HTTP/1.1" 200 5320
0:0:0:0:0:0:0:1 - - [26/Jan/2020:19:53:02 +0530] "GET /SpringMVCDemo/authors2/updateForm?aid=11 HTTP/1.1" 200 5320
0:0:0:0:0:0:0:1 - - [26/Jan/2020:19:53:04 +0530] "GET /SpringMVCDemo/authors2/updateForm?aid=9 HTTP/1.1" 200 5315
0:0:0:0:0:0:0:1 - - [26/Jan/2020:19:53:05 +0530] "GET /SpringMVCDemo/authors2/updateForm?aid=6 HTTP/1.1" 200 5311
0:0:0:0:0:0:0:1 - - [26/Jan/2020:19:53:07 +0530] "GET /SpringMVCDemo/authors2/updateForm?aid=1 HTTP/1.1" 200 5305
0:0:0:0:0:0:0:1 - - [26/Jan/2020:19:53:09 +0530] "GET /SpringMVCDemo/authors2/updateForm?aid=12 HTTP/1.1" 200 5286
0:0:0:0:0:0:0:1 - - [26/Jan/2020:19:53:38 +0530] "POST /SpringMVCDemo/authors2/update HTTP/1.1" 302 -
0:0:0:0:0:0:0:1 - - [26/Jan/2020:19:53:38 +0530] "GET /SpringMVCDemo/authors2 HTTP/1.1" 200 5348
0:0:0:0:0:0:0:1 - - [26/Jan/2020:19:53:43 +0530] "GET /SpringMVCDemo/authors2/updateForm?aid=10 HTTP/1.1" 200 5292
0:0:0:0:0:0:0:1 - - [26/Jan/2020:19:53:52 +0530] "POST /SpringMVCDemo/authors2/update HTTP/1.1" 302 -
0:0:0:0:0:0:0:1 - - [26/Jan/2020:19:53:52 +0530] "GET /SpringMVCDemo/authors2 HTTP/1.1" 200 5358
0:0:0:0:0:0:0:1 - - [26/Jan/2020:20:02:02 +0530] "GET /SpringMVCDemo/authors2/updateForm?aid=12 HTTP/1.1" 200 5323
0:0:0:0:0:0:0:1 - - [26/Jan/2020:20:02:05 +0530] "GET /SpringMVCDemo/authors2/updateForm?aid=10 HTTP/1.1" 200 5331
0:0:0:0:0:0:0:1 - - [26/Jan/2020:20:02:07 +0530] "GET /SpringMVCDemo/authors2/updateForm?aid=9 HTTP/1.1" 200 5331
0:0:0:0:0:0:0:1 - - [26/Jan/2020:20:03:19 +0530] "GET /SpringMVCDemo/authors2/updateForm?aid=9 HTTP/1.1" 200 5390
0:0:0:0:0:0:0:1 - - [26/Jan/2020:20:04:22 +0530] "GET /SpringMVCDemo/authors2 HTTP/1.1" 200 5358
0:0:0:0:0:0:0:1 - - [26/Jan/2020:20:10:41 +0530] "GET /SpringMVCDemo/authors2 HTTP/1.1" 200 5466
0:0:0:0:0:0:0:1 - - [26/Jan/2020:20:10:50 +0530] "GET /SpringMVCDemo/authors2/updateForm?aid=12 HTTP/1.1" 200 5382
0:0:0:0:0:0:0:1 - - [26/Jan/2020:20:10:55 +0530] "GET /SpringMVCDemo/authors2/updateForm?aid=10 HTTP/1.1" 200 5390
0:0:0:0:0:0:0:1 - - [26/Jan/2020:20:11:43 +0530] "GET /SpringMVCDemo/authors2/updateForm?aid=10 HTTP/1.1" 200 5489
0:0:0:0:0:0:0:1 - - [26/Jan/2020:20:11:47 +0530] "GET /SpringMVCDemo/authors2/updateForm?aid=1 HTTP/1.1" 200 5479
0:0:0:0:0:0:0:1 - - [26/Jan/2020:20:11:48 +0530] "GET /SpringMVCDemo/authors2/updateForm?aid=12 HTTP/1.1" 200 5481
