127.0.0.1 - - [22/Jan/2020:10:26:02 +0530] "GET / HTTP/1.1" 404 709
0:0:0:0:0:0:0:1 - - [22/Jan/2020:10:26:04 +0530] "GET /SpringMVCDemo/ HTTP/1.1" 404 727
0:0:0:0:0:0:0:1 - - [22/Jan/2020:10:26:04 +0530] "GET /favicon.ico HTTP/1.1" 404 720
0:0:0:0:0:0:0:1 - - [22/Jan/2020:10:26:17 +0530] "GET /SpringMVCDemo/publisher HTTP/1.1" 404 736
127.0.0.1 - - [22/Jan/2020:10:56:46 +0530] "GET / HTTP/1.1" 404 709
0:0:0:0:0:0:0:1 - - [22/Jan/2020:10:56:47 +0530] "GET /SpringMVCDemo/ HTTP/1.1" 404 727
0:0:0:0:0:0:0:1 - - [22/Jan/2020:10:58:25 +0530] "GET /SpringMVCDemo/publisher/all HTTP/1.1" 404 744
0:0:0:0:0:0:0:1 - - [22/Jan/2020:11:04:18 +0530] "GET /SpringMVCDemo/hi HTTP/1.1" 404 729
0:0:0:0:0:0:0:1 - - [22/Jan/2020:11:04:23 +0530] "GET /SpringMVCDemo/hi HTTP/1.1" 404 729
0:0:0:0:0:0:0:1 - - [22/Jan/2020:11:08:09 +0530] "GET /SpringMVCDemo/ HTTP/1.1" 404 727
0:0:0:0:0:0:0:1 - - [22/Jan/2020:11:08:16 +0530] "GET /SpringMVCDemo/hi HTTP/1.1" 404 729
127.0.0.1 - - [22/Jan/2020:11:16:43 +0530] "GET / HTTP/1.1" 404 709
0:0:0:0:0:0:0:1 - - [22/Jan/2020:11:16:43 +0530] "GET /SpringMVCDemo/ HTTP/1.1" 404 682
0:0:0:0:0:0:0:1 - - [22/Jan/2020:11:17:06 +0530] "GET /SpringMVCDemo/publisher/all HTTP/1.1" 200 133
0:0:0:0:0:0:0:1 - - [22/Jan/2020:11:17:24 +0530] "GET /SpringMVCDemo/hi HTTP/1.1" 200 140
0:0:0:0:0:0:0:1 - - [22/Jan/2020:11:18:14 +0530] "GET /SpringMVCDemo/publisher/all HTTP/1.1" 200 149
0:0:0:0:0:0:0:1 - - [22/Jan/2020:11:20:09 +0530] "GET /SpringMVCDemo/publisher/all HTTP/1.1" 200 748
0:0:0:0:0:0:0:1 - - [22/Jan/2020:11:20:27 +0530] "GET /SpringMVCDemo/publisher/all HTTP/1.1" 200 749
0:0:0:0:0:0:0:1 - - [22/Jan/2020:11:20:28 +0530] "GET /SpringMVCDemo/publisher/all HTTP/1.1" 200 749
0:0:0:0:0:0:0:1 - - [22/Jan/2020:11:20:29 +0530] "GET /SpringMVCDemo/publisher/all HTTP/1.1" 200 749
0:0:0:0:0:0:0:1 - - [22/Jan/2020:11:20:30 +0530] "GET /SpringMVCDemo/publisher/all HTTP/1.1" 200 749
0:0:0:0:0:0:0:1 - - [22/Jan/2020:11:20:32 +0530] "GET /SpringMVCDemo/publisher/all HTTP/1.1" 200 749
0:0:0:0:0:0:0:1 - - [22/Jan/2020:11:20:32 +0530] "GET /SpringMVCDemo/publisher/all HTTP/1.1" 200 749
0:0:0:0:0:0:0:1 - - [22/Jan/2020:11:20:33 +0530] "GET /SpringMVCDemo/publisher/all HTTP/1.1" 200 749
0:0:0:0:0:0:0:1 - - [22/Jan/2020:11:20:33 +0530] "GET /SpringMVCDemo/publisher/all HTTP/1.1" 200 749
0:0:0:0:0:0:0:1 - - [22/Jan/2020:11:20:33 +0530] "GET /SpringMVCDemo/publisher/all HTTP/1.1" 200 749
0:0:0:0:0:0:0:1 - - [22/Jan/2020:11:20:34 +0530] "GET /SpringMVCDemo/publisher/all HTTP/1.1" 200 749
0:0:0:0:0:0:0:1 - - [22/Jan/2020:11:20:34 +0530] "GET /SpringMVCDemo/publisher/all HTTP/1.1" 200 749
0:0:0:0:0:0:0:1 - - [22/Jan/2020:11:20:34 +0530] "GET /SpringMVCDemo/publisher/all HTTP/1.1" 200 749
0:0:0:0:0:0:0:1 - - [22/Jan/2020:11:20:34 +0530] "GET /SpringMVCDemo/publisher/all HTTP/1.1" 200 749
0:0:0:0:0:0:0:1 - - [22/Jan/2020:11:20:35 +0530] "GET /SpringMVCDemo/publisher/all HTTP/1.1" 200 749
0:0:0:0:0:0:0:1 - - [22/Jan/2020:11:20:35 +0530] "GET /SpringMVCDemo/publisher/all HTTP/1.1" 200 749
0:0:0:0:0:0:0:1 - - [22/Jan/2020:11:20:35 +0530] "GET /SpringMVCDemo/publisher/all HTTP/1.1" 200 749
0:0:0:0:0:0:0:1 - - [22/Jan/2020:11:20:36 +0530] "GET /SpringMVCDemo/publisher/all HTTP/1.1" 200 749
0:0:0:0:0:0:0:1 - - [22/Jan/2020:11:20:36 +0530] "GET /SpringMVCDemo/publisher/all HTTP/1.1" 200 749
0:0:0:0:0:0:0:1 - - [22/Jan/2020:11:20:36 +0530] "GET /SpringMVCDemo/publisher/all HTTP/1.1" 200 749
0:0:0:0:0:0:0:1 - - [22/Jan/2020:11:20:38 +0530] "GET /SpringMVCDemo/publisher/all HTTP/1.1" 200 749
0:0:0:0:0:0:0:1 - - [22/Jan/2020:11:20:38 +0530] "GET /SpringMVCDemo/publisher/all HTTP/1.1" 200 749
0:0:0:0:0:0:0:1 - - [22/Jan/2020:11:20:39 +0530] "GET /SpringMVCDemo/publisher/all HTTP/1.1" 200 749
0:0:0:0:0:0:0:1 - - [22/Jan/2020:11:20:39 +0530] "GET /SpringMVCDemo/publisher/all HTTP/1.1" 200 749
0:0:0:0:0:0:0:1 - - [22/Jan/2020:11:20:39 +0530] "GET /SpringMVCDemo/publisher/all HTTP/1.1" 200 749
0:0:0:0:0:0:0:1 - - [22/Jan/2020:11:20:39 +0530] "GET /SpringMVCDemo/publisher/all HTTP/1.1" 200 749
0:0:0:0:0:0:0:1 - - [22/Jan/2020:11:20:40 +0530] "GET /SpringMVCDemo/publisher/all HTTP/1.1" 200 749
0:0:0:0:0:0:0:1 - - [22/Jan/2020:11:20:40 +0530] "GET /SpringMVCDemo/publisher/all HTTP/1.1" 200 749
0:0:0:0:0:0:0:1 - - [22/Jan/2020:11:20:40 +0530] "GET /SpringMVCDemo/publisher/all HTTP/1.1" 200 749
0:0:0:0:0:0:0:1 - - [22/Jan/2020:11:20:40 +0530] "GET /SpringMVCDemo/publisher/all HTTP/1.1" 200 749
0:0:0:0:0:0:0:1 - - [22/Jan/2020:11:20:41 +0530] "GET /SpringMVCDemo/publisher/all HTTP/1.1" 200 749
0:0:0:0:0:0:0:1 - - [22/Jan/2020:11:20:41 +0530] "GET /SpringMVCDemo/publisher/all HTTP/1.1" 200 749
0:0:0:0:0:0:0:1 - - [22/Jan/2020:11:20:41 +0530] "GET /SpringMVCDemo/publisher/all HTTP/1.1" 200 749
0:0:0:0:0:0:0:1 - - [22/Jan/2020:11:20:42 +0530] "GET /SpringMVCDemo/publisher/all HTTP/1.1" 200 749
0:0:0:0:0:0:0:1 - - [22/Jan/2020:11:20:42 +0530] "GET /SpringMVCDemo/publisher/all HTTP/1.1" 200 749
0:0:0:0:0:0:0:1 - - [22/Jan/2020:11:20:46 +0530] "GET /SpringMVCDemo/publisher/all HTTP/1.1" 200 749
0:0:0:0:0:0:0:1 - - [22/Jan/2020:11:21:51 +0530] "GET /SpringMVCDemo/publisher/all HTTP/1.1" 200 785
0:0:0:0:0:0:0:1 - - [22/Jan/2020:11:26:43 +0530] "GET /SpringMVCDemo/publisher/all HTTP/1.1" 200 674
0:0:0:0:0:0:0:1 - - [22/Jan/2020:11:31:34 +0530] "GET /SpringMVCDemo/publisher/all HTTP/1.1" 200 674
127.0.0.1 - - [22/Jan/2020:11:32:09 +0530] "GET / HTTP/1.1" 404 709
0:0:0:0:0:0:0:1 - - [22/Jan/2020:11:32:10 +0530] "GET /SpringMVCDemo/ HTTP/1.1" 404 682
0:0:0:0:0:0:0:1 - - [22/Jan/2020:11:32:33 +0530] "GET /SpringMVCDemo/publisher/all HTTP/1.1" 200 674
0:0:0:0:0:0:0:1 - - [22/Jan/2020:12:56:27 +0530] "GET /SpringMVCDemo/publisher/all HTTP/1.1" 200 674
127.0.0.1 - - [22/Jan/2020:17:41:41 +0530] "GET / HTTP/1.1" 404 709
0:0:0:0:0:0:0:1 - - [22/Jan/2020:17:41:42 +0530] "GET /SpringMVCDemo/ HTTP/1.1" 404 682
0:0:0:0:0:0:0:1 - - [22/Jan/2020:17:41:58 +0530] "GET /SpringMVCDemo/publisher/all HTTP/1.1" 200 674
0:0:0:0:0:0:0:1 - - [22/Jan/2020:17:42:09 +0530] "GET /SpringMVCDemo/publishers/allDirect HTTP/1.1" 200 412
